{
  "main": {
    "d": "M99.141,122.627c-22.481-2.624-41.748-20.841-41.462-40.445c0.311-21.203,10.694-38.54,35.338-39.331    c6.353-0.208,13.261,2.428,17.358,5.389l14.135-16.269c0,0-17.399-16.542-44.024-11.842c-5.738,1.02-22.688,5.967-36.003,21.282    c-12.965,14.904-26.431,56.342,10.242,92.14C65.935,144.489,81.958,151.004,99.082,153c32.332,3.777,75.68-13.795,92.769-59.898    l-36.781-10.906c0.041,0.37,0.059,0.742-0.085,1.07C141.236,114.696,118.319,124.875,99.141,122.627z",
    "fill": "none",
    "data-fill": "#535C9C",
    "stroke": "#535C9C",
    "data-start": 1500,
    "data-duration": 2000
  },
  "multiplyOne": {
    "d": "M79.422,20.464l4.042,17.517c0.36-0.08,0.736-0.146,1.16-0.19c12.387-1.236,21.922,2.094,28.509,7.4    l11.376-13.094c0,0-17.399-16.542-44.024-11.842C80.166,20.311,79.808,20.382,79.422,20.464z",
    "fill": "none",
    "data-fill": "#262C5F",
    "stroke": "#535C9C",
    "data-start": 1500,
    "data-duration": 1000
  },
  "multiplyTwo": {
    "d": "M155.069,82.196c-0.448,1.249-0.133,0.668-0.338,1.157c-27.663,66.01-95.329,37.51-96.996-0.157    l-13.19,2.468c7.522,28.567,28.697,49.288,64.824,48.771c25.468-0.358,52.31-19.983,64.366-46.572L155.069,82.196z",
    "fill": "none",
    "data-fill": "#262C5F",
    "stroke": "#535C9C",
    "data-start": 1500,
    "data-duration": 1000
  }
}
